[
  {
    "tag_name": "entity",
    "ids_to_tags": {
      "1": "B-cuisine",
      "2": "I-cuisine",
      "3": "L-cuisine",
      "4": "U-cuisine",
      "5": "B-location",
      "6": "I-location",
      "7": "L-location",
      "8": "U-location",
      "9": "B-number",
      "10": "I-number",
      "11": "L-number",
      "12": "U-number",
      "13": "B-price",
      "14": "I-price",
      "15": "L-price",
      "16": "U-price",
      "0": "O"
    },
    "tags_to_ids": {
      "B-cuisine": 1,
      "I-cuisine": 2,
      "L-cuisine": 3,
      "U-cuisine": 4,
      "B-location": 5,
      "I-location": 6,
      "L-location": 7,
      "U-location": 8,
      "B-number": 9,
      "I-number": 10,
      "L-number": 11,
      "U-number": 12,
      "B-price": 13,
      "I-price": 14,
      "L-price": 15,
      "U-price": 16,
      "O": 0
    },
    "num_tags": 17
  }
]